{
  "editor": [
    {
      "icon": "",
      "key": "settings",
      "header": "Settings",
      "disabled": false,
      "fields": [
        {
          "key": "title",
          "header": "Title",
          "type": "text"
        },
        {
          "key": "fontType",
          "header": "Font Family",
          "type": "text"
        },
        {
          "key": "fontColor",
          "header": "Text Content",
          "type": "color"
        },
        {
          "key": "fontSize",
          "header": "Font Size",
          "type": "range",
          "options": {
            "minValue": 12,
            "maxValue": 72,
            "stepSize": "1"
          }
        },
        {
          "key": "bgImg",
          "header": "Background image",
          "type": "image"
        },
        {
          "key": "date",
          "header": "Date",
          "type": "text"
        },
        {
          "key": "month",
          "header": "Month(Enter Full)",
          "type": "text"
        },
        {
          "key": "year",
          "header": "Year",
          "type": "text"
        },
        {
          "key": "hour",
          "header": "Hour",
          "type": "text"
        },
        {
          "key": "minute",
          "header": "Minute",
          "type": "text"
        },
        {
          "key": "second",
          "header": "Second",
          "type": "text"
        }
      ]
    }
  ],
  "config": {
    "settings": {
      "title": "My Countdown",
      "fontSize": 44,
      "fontColor": "#fff",
      "fontType": "Cinzel",
      "bgImg": "./assets/bg1.jpg",
      "date": "20",
      "month": "October",
      "year": "2020",
      "hour": "22",
      "minute": "45",
      "second": "36"
    }
  }
}
